<?xml version="1.0" encoding="UTF-8" standalone="no"?>
<!-- Created with Inkscape (http://www.inkscape.org/) -->

<svg
   width="51.182899mm"
   height="18.287539mm"
   viewBox="0 0 51.182899 18.287539"
   version="1.1"
   id="svg185770"
   inkscape:version="1.2.2 (b0a8486541, 2022-12-01)"
   sodipodi:docname="badge-top-logo.svg"
   xmlns:inkscape="http://www.inkscape.org/namespaces/inkscape"
   xmlns:sodipodi="http://sodipodi.sourceforge.net/DTD/sodipodi-0.dtd"
   xmlns="http://www.w3.org/2000/svg"
   xmlns:svg="http://www.w3.org/2000/svg">
  <sodipodi:namedview
     id="namedview185772"
     pagecolor="#ffffff"
     bordercolor="#666666"
     borderopacity="1.0"
     inkscape:showpageshadow="2"
     inkscape:pageopacity="0.0"
     inkscape:pagecheckerboard="0"
     inkscape:deskcolor="#d1d1d1"
     inkscape:document-units="mm"
     showgrid="false"
     inkscape:zoom="2.8436027"
     inkscape:cx="121.5008"
     inkscape:cy="161.23912"
     inkscape:window-width="3840"
     inkscape:window-height="2091"
     inkscape:window-x="0"
     inkscape:window-y="0"
     inkscape:window-maximized="1"
     inkscape:current-layer="layer1" />
  <defs
     id="defs185767" />
  <g
     inkscape:label="레이어 1"
     inkscape:groupmode="layer"
     id="layer1"
     transform="translate(-31.52953,-18.413577)">
    <g
       id="g185580"
       transform="translate(-99.527012,4.6224525)">
      <g
         id="seagull-2"
         data-name="seagull"
         transform="matrix(0.26458333,0,0,0.26458333,38.155292,9.1287046)">
        <g
           id="g180526">
          <path
             id="path180520"
             data-name="path12"
             class="cls-7"
             d="m 375.47,72.23 c 0,0 0.68,-0.37 1.28,-0.83 0.34,-0.26 0.67,-0.53 0.76,-0.77 0.34,-0.9 1.45,-1.69 2.37,-1.76 0.69,-0.05 1.29,0.21 2.07,0.78 0.15,-0.44 0.41,-0.92 0.82,-1.43 0.91,-1.15 2.56,-2.5 5.17,-4.1 4.34,-2.65 10.3,-2.65 10.3,-2.65 0.14,0 0.27,0.06 0.35,0.16 l 0.27,0.33 c 0.1,0.12 0.13,0.27 0.09,0.41 -0.04,0.14 -0.15,0.26 -0.29,0.31 0,0 -5.67,1.9 -7.94,3.8 -2.11,1.78 -1.55,4.25 -1.02,5.61 0.55,1.42 2.6,3.43 6.31,4.87 0.13,0.05 0.22,0.15 0.27,0.28 0.04,0.13 0.03,0.26 -0.04,0.38 -0.63,1.03 -1.41,2 -2.1,2.87 -0.09,0.12 -0.24,0.18 -0.4,0.17 -0.15,-0.01 -0.29,-0.1 -0.37,-0.23 -0.31,-0.54 -1.04,-1.15 -1.92,-1.78 -1.41,-1 -3.18,-1.98 -4.34,-2.64 -1.85,-1.05 -3.18,-1.56 -5.37,-1.31 -2.1,0.71 -3.93,-0.72 -4.35,-1.19 -0.04,-0.04 -0.11,-0.07 -0.19,-0.11 -0.13,-0.06 -0.29,-0.11 -0.45,-0.15 -0.53,-0.14 -1.09,-0.2 -1.09,-0.2 -0.2,-0.02 -0.36,-0.17 -0.4,-0.36 -0.04,-0.19 0.05,-0.39 0.23,-0.49 v 0 z"
             style="fill:#35689b;fill-rule:evenodd;stroke-width:0px" />
          <path
             id="path180522"
             data-name="path14"
             class="cls-7"
             d="m 391.24,63.59 c -0.97,0.33 -1.93,0.76 -2.82,1.31 -2.48,1.52 -4.07,2.8 -4.93,3.89 -0.51,0.64 -0.76,1.2 -0.76,1.7 0,0.18 -0.1,0.33 -0.26,0.41 -0.16,0.08 -0.35,0.05 -0.49,-0.06 -0.85,-0.69 -1.36,-1.1 -2.03,-1.05 -0.61,0.04 -1.35,0.57 -1.57,1.17 -0.11,0.28 -0.38,0.61 -0.74,0.91 -0.22,0.18 -0.46,0.37 -0.7,0.53 0.11,0.03 0.22,0.06 0.33,0.09 0.36,0.12 0.66,0.28 0.81,0.45 0.32,0.37 1.76,1.49 3.4,0.91 0.03,-0.01 0.07,-0.02 0.1,-0.02 2.45,-0.29 3.92,0.25 5.98,1.42 0.58,0.33 1.31,0.74 2.07,1.19 l 1.16,-1.46 c -1.02,-0.9 -1.66,-1.8 -1.95,-2.54 -0.63,-1.61 -1.21,-4.52 1.29,-6.62 0.44,-0.37 0.99,-0.73 1.61,-1.09 l -0.49,-1.13 v 0 z"
             style="fill:#35689b;fill-rule:evenodd;stroke-width:0px" />
          <path
             id="path180524"
             data-name="path16"
             class="cls-7"
             d="m 379.99,71.59 c -0.08,0.24 -0.33,0.37 -0.57,0.29 -0.24,-0.08 -0.38,-0.33 -0.3,-0.57 l 0.11,-0.33 c 0.08,-0.24 0.33,-0.37 0.58,-0.29 0.25,0.08 0.38,0.33 0.3,0.57 L 380,71.59 v 0 z"
             style="fill:#35689b;fill-rule:evenodd;stroke-width:0px" />
        </g>
        <g
           id="g180531">
          <path
             id="path12-2-2"
             data-name="path12-2"
             class="cls-9"
             d="m 375.47,72.23 c 0,0 0.68,-0.37 1.28,-0.83 0.34,-0.26 0.67,-0.53 0.76,-0.77 0.34,-0.9 1.45,-1.69 2.37,-1.76 0.69,-0.05 1.29,0.21 2.07,0.78 0.15,-0.44 0.41,-0.92 0.82,-1.43 0.91,-1.15 2.56,-2.5 5.17,-4.1 4.34,-2.65 10.3,-2.65 10.3,-2.65 0.14,0 0.27,0.06 0.35,0.16 l 0.27,0.33 c 0.1,0.12 0.13,0.27 0.09,0.41 -0.04,0.14 -0.15,0.26 -0.29,0.31 0,0 -5.67,1.9 -7.94,3.8 -2.11,1.78 -1.55,4.25 -1.02,5.61 0.55,1.42 2.6,3.43 6.31,4.87 0.13,0.05 0.22,0.15 0.27,0.28 0.04,0.13 0.03,0.26 -0.04,0.38 -0.63,1.03 -1.41,2 -2.1,2.87 -0.09,0.12 -0.24,0.18 -0.4,0.17 -0.15,-0.01 -0.29,-0.1 -0.37,-0.23 -0.31,-0.54 -1.04,-1.15 -1.92,-1.78 -1.41,-1 -3.18,-1.98 -4.34,-2.64 -1.85,-1.05 -3.18,-1.56 -5.37,-1.31 -2.1,0.71 -3.93,-0.72 -4.35,-1.19 -0.04,-0.04 -0.11,-0.07 -0.19,-0.11 -0.13,-0.06 -0.29,-0.11 -0.45,-0.15 -0.53,-0.14 -1.09,-0.2 -1.09,-0.2 -0.2,-0.02 -0.36,-0.17 -0.4,-0.36 -0.04,-0.19 0.05,-0.39 0.23,-0.49 v 0 z"
             style="fill:#020202;fill-rule:evenodd;stroke-width:0px" />
          <path
             id="path14-2-2"
             data-name="path14-2"
             class="cls-16"
             d="m 391.24,63.59 c -0.97,0.33 -1.93,0.76 -2.82,1.31 -2.48,1.52 -4.07,2.8 -4.93,3.89 -0.51,0.64 -0.76,1.2 -0.76,1.7 0,0.18 -0.1,0.33 -0.26,0.41 -0.16,0.08 -0.35,0.05 -0.49,-0.06 -0.85,-0.69 -1.36,-1.1 -2.03,-1.05 -0.61,0.04 -1.35,0.57 -1.57,1.17 -0.11,0.28 -0.38,0.61 -0.74,0.91 -0.22,0.18 -0.46,0.37 -0.7,0.53 0.11,0.03 0.22,0.06 0.33,0.09 0.36,0.12 0.66,0.28 0.81,0.45 0.32,0.37 1.76,1.49 3.4,0.91 0.03,-0.01 0.07,-0.02 0.1,-0.02 2.45,-0.29 3.92,0.25 5.98,1.42 0.58,0.33 1.31,0.74 2.07,1.19 l 1.16,-1.46 c -1.02,-0.9 -1.66,-1.8 -1.95,-2.54 -0.63,-1.61 -1.21,-4.52 1.29,-6.62 0.44,-0.37 0.99,-0.73 1.61,-1.09 l -0.49,-1.13 v 0 z"
             style="fill:#ffffff;fill-rule:evenodd;stroke-width:0px" />
          <path
             id="path16-2-2"
             data-name="path16-2"
             class="cls-22"
             d="m 379.99,71.59 c -0.08,0.24 -0.33,0.37 -0.57,0.29 -0.24,-0.08 -0.38,-0.33 -0.3,-0.57 l 0.11,-0.33 c 0.08,-0.24 0.33,-0.37 0.58,-0.29 0.25,0.08 0.38,0.33 0.3,0.57 L 380,71.59 v 0 z"
             style="fill:#231815;fill-rule:evenodd;stroke-width:0px" />
        </g>
      </g>
      <g
         id="debian-2"
         data-name="debian"
         transform="matrix(0.26458333,0,0,0.26458333,38.155292,9.1287046)">
        <path
           class="cls-8"
           d="M 369.38,71.9 C 358.65,68.83 351.43,57.81 351.14,47 c -0.32,-9.26 3.85,-18.67 11.26,-24.43 6.15,-4.66 14.54,-6.12 21.95,-3.99 9.77,2.67 17.59,11.1 17.69,21.36 -0.03,7.04 -4.12,13.65 -10.04,17.41 -5.08,3.25 -12.16,4.03 -17.11,0.12 -5.99,-4.53 -7.65,-13.71 -1.47,-18.8 0.59,-0.49 1.26,-0.88 1.94,-1.23 0.46,-0.25 0.93,-0.48 1.46,-0.58 3.39,-0.83 6.76,1.16 8.64,3.81 -3.18,-0.9 -5.73,-1.14 -8.62,0.56 -1.78,1.27 -2.93,3.19 -2.8,5.39 0.11,3.37 2.67,6.68 5.96,7.6 2.91,0.76 6.01,-0.34 8.33,-2.11 3.6,-2.8 6.14,-7.49 5.62,-12.06 -0.07,-0.59 -0.23,-1.21 -0.38,-1.8 -0.26,-1.02 -0.7,-1.98 -1.22,-2.89 -2.23,-3.74 -6.22,-6.34 -10.5,-7.22 -4.54,-1 -9.6,0.08 -13.17,3.03 -0.1,0.06 -0.24,0.2 -0.32,0.29 -0.66,0.64 -1.38,1.35 -1.94,2.08 -2.27,2.72 -3.74,6.01 -4.4,9.47 -0.88,5.32 -0.17,10.89 1.45,16.09 1.37,4.52 3.53,8.63 5.91,12.81 v 0 z"
           id="path180534"
           style="fill:#cc2028;stroke-width:0px" />
      </g>
      <g
         id="g180555"
         transform="matrix(0.26458333,0,0,0.26458333,38.155292,9.1287046)">
        <path
           class="cls-2"
           d="m 408.8,46.29 0.34,-1.88 0.53,-0.04 c 0.6,-0.05 1.03,-0.22 1.3,-0.5 0.27,-0.28 0.47,-0.77 0.6,-1.47 l 1.47,-8.01 c 0.06,-0.35 0.09,-0.65 0.09,-0.91 0,-0.63 -0.42,-0.99 -1.25,-1.07 l -0.52,-0.04 0.34,-1.88 h 7.51 c 2.19,0 3.72,0.17 4.58,0.52 1.37,0.54 2.36,1.45 2.96,2.73 0.43,0.9 0.64,1.93 0.64,3.1 0,2.02 -0.53,3.84 -1.59,5.48 -1.33,2.08 -3.3,3.32 -5.91,3.72 -1.09,0.17 -2.47,0.25 -4.13,0.25 h -6.97 v 0 z m 8.31,-11.8 -1.5,8.16 c -0.07,0.38 -0.1,0.67 -0.1,0.87 0,0.26 0.14,0.46 0.42,0.58 0.28,0.12 0.74,0.18 1.38,0.18 1.41,0 2.69,-0.6 3.85,-1.79 0.77,-0.79 1.34,-1.78 1.72,-2.96 0.31,-0.96 0.46,-1.95 0.46,-2.96 0,-1.4 -0.33,-2.44 -0.99,-3.13 -0.67,-0.7 -1.62,-1.05 -2.85,-1.05 -0.95,0 -1.58,0.15 -1.88,0.45 -0.12,0.12 -0.21,0.26 -0.26,0.43 -0.05,0.17 -0.13,0.57 -0.25,1.21 v 0 z"
           id="path180537"
           style="fill:#010101;stroke-width:0px" />
        <path
           class="cls-2"
           d="m 438.48,42.26 1.28,1.36 c -0.4,0.44 -0.96,0.88 -1.67,1.34 -0.86,0.54 -1.66,0.94 -2.42,1.18 -0.76,0.24 -1.55,0.37 -2.36,0.37 -1.59,0 -2.87,-0.41 -3.87,-1.25 -0.53,-0.43 -0.94,-0.97 -1.23,-1.62 -0.29,-0.64 -0.44,-1.33 -0.44,-2.07 0,-1.44 0.48,-2.79 1.45,-4.04 0.95,-1.23 2.18,-2.13 3.71,-2.71 1.06,-0.4 2.17,-0.6 3.33,-0.6 1.16,0 2.12,0.23 2.87,0.69 0.85,0.53 1.28,1.25 1.28,2.17 0,1.42 -0.87,2.47 -2.61,3.15 -1.57,0.6 -3.35,0.91 -5.35,0.91 -0.14,0 -0.34,0 -0.61,-0.01 -0.04,0.37 -0.07,0.7 -0.07,1 0,0.65 0.21,1.17 0.64,1.56 0.43,0.39 0.99,0.59 1.69,0.59 1.37,0 2.84,-0.67 4.41,-2.02 v 0 z m -6.32,-2.73 c 1.34,0 2.47,-0.23 3.4,-0.7 0.9,-0.45 1.34,-1 1.34,-1.68 0,-0.33 -0.12,-0.59 -0.37,-0.8 -0.24,-0.21 -0.56,-0.31 -0.95,-0.31 -0.86,0 -1.66,0.45 -2.38,1.36 -0.56,0.72 -0.91,1.43 -1.04,2.13 z"
           id="path180539"
           style="fill:#010101;stroke-width:0px" />
        <path
           class="cls-2"
           d="m 445.88,35.91 c 0.36,-0.49 0.79,-0.86 1.29,-1.12 0.72,-0.38 1.47,-0.57 2.26,-0.57 0.64,0 1.26,0.12 1.88,0.37 0.62,0.25 1.15,0.58 1.57,1 0.92,0.92 1.39,2.13 1.39,3.63 0,1.5 -0.43,2.78 -1.3,4.03 -0.88,1.29 -2,2.21 -3.36,2.77 -0.8,0.33 -1.56,0.49 -2.28,0.49 -0.99,0 -2.06,-0.34 -3.2,-1.03 l -0.15,0.82 h -3.25 l 2.3,-12.5 c 0.08,-0.43 0.13,-0.73 0.13,-0.9 0,-0.2 -0.05,-0.34 -0.15,-0.43 -0.19,-0.19 -0.59,-0.31 -1.21,-0.35 l -0.28,-0.02 0.36,-1.89 c 1.59,-0.03 3.07,-0.33 4.44,-0.9 h 0.78 l -1.22,6.61 v 0 z m -0.97,7.82 c 0.46,0.49 0.99,0.74 1.61,0.74 0.34,0 0.68,-0.08 1.04,-0.24 0.36,-0.16 0.66,-0.37 0.91,-0.62 0.62,-0.65 1.1,-1.51 1.43,-2.58 0.28,-0.86 0.41,-1.68 0.41,-2.46 0,-0.64 -0.15,-1.15 -0.45,-1.54 -0.3,-0.39 -0.7,-0.57 -1.21,-0.57 -0.71,0 -1.34,0.39 -1.88,1.17 -0.49,0.7 -0.87,1.5 -1.14,2.4 -0.27,0.9 -0.51,2.13 -0.73,3.71 v 0 z"
           id="path180541"
           style="fill:#010101;stroke-width:0px" />
        <path
           class="cls-2"
           d="m 470.04,30.49 1.16,6.09 -1.73,0.36 c -0.15,-0.85 -0.63,-1.82 -1.42,-2.89 -0.86,-1.16 -1.92,-1.73 -3.2,-1.73 -1.28,0 -2.49,0.72 -3.46,2.17 -0.49,0.74 -0.87,1.6 -1.15,2.58 -0.28,0.98 -0.41,1.97 -0.41,2.97 0,1.4 0.33,2.47 0.99,3.22 0.71,0.82 1.68,1.22 2.92,1.22 0.98,0 1.97,-0.31 2.97,-0.92 1,-0.61 1.84,-1.43 2.52,-2.44 l 1.61,1.04 c -0.69,1.06 -1.49,1.93 -2.41,2.63 -1.59,1.22 -3.46,1.82 -5.6,1.82 -1.55,0 -2.93,-0.34 -4.14,-1.02 -1.24,-0.7 -2.15,-1.7 -2.73,-3 -0.41,-0.93 -0.62,-1.87 -0.62,-2.82 0,-1.53 0.39,-3.06 1.17,-4.57 0.86,-1.65 1.99,-2.91 3.4,-3.77 1.36,-0.82 2.9,-1.23 4.6,-1.23 1.18,0 2.49,0.34 3.95,1.01 l 0.29,-0.7 h 1.32 z"
           id="path180543"
           style="fill:#010101;stroke-width:0px" />
        <path
           class="cls-2"
           d="m 479.09,34.23 c 1.87,0 3.32,0.45 4.33,1.35 0.92,0.82 1.39,2.01 1.39,3.56 0,1.25 -0.36,2.5 -1.07,3.75 -0.7,1.24 -1.69,2.17 -2.96,2.8 -1.09,0.54 -2.31,0.82 -3.64,0.82 -1.61,0 -2.92,-0.35 -3.92,-1.07 -0.56,-0.4 -0.99,-0.92 -1.3,-1.57 -0.31,-0.65 -0.46,-1.35 -0.46,-2.11 0,-1.41 0.39,-2.77 1.16,-4.08 0.77,-1.29 1.82,-2.22 3.13,-2.79 1.01,-0.44 2.12,-0.66 3.34,-0.66 z m -0.1,2.04 c -0.53,0 -0.98,0.14 -1.35,0.4 -0.37,0.26 -0.72,0.7 -1.04,1.31 -0.29,0.54 -0.54,1.27 -0.76,2.17 -0.22,0.9 -0.32,1.68 -0.32,2.33 0,0.65 0.16,1.11 0.48,1.46 0.32,0.35 0.76,0.52 1.33,0.52 1.04,0 1.86,-0.57 2.46,-1.71 0.27,-0.51 0.51,-1.22 0.74,-2.11 0.23,-0.89 0.34,-1.62 0.34,-2.18 0,-0.75 -0.14,-1.3 -0.42,-1.64 -0.29,-0.37 -0.77,-0.56 -1.43,-0.56 v 0 z"
           id="path180545"
           style="fill:#010101;stroke-width:0px" />
        <path
           class="cls-2"
           d="m 490.04,46.29 h -3.72 l 1.37,-7.43 c 0.08,-0.41 0.11,-0.7 0.11,-0.88 0,-0.2 -0.05,-0.35 -0.15,-0.44 -0.2,-0.2 -0.61,-0.32 -1.24,-0.37 l -0.29,-0.02 0.34,-1.89 c 1.52,-0.07 3.03,-0.34 4.52,-0.8 h 1.23 l -0.22,1.18 c 0.51,-0.42 1.11,-0.76 1.82,-1.01 0.71,-0.25 1.41,-0.37 2.09,-0.37 0.93,0 1.72,0.21 2.35,0.62 0.3,0.2 0.54,0.48 0.73,0.82 0.19,0.34 0.29,0.69 0.29,1.05 0,0.27 -0.05,0.69 -0.16,1.25 l -0.75,4.07 c -0.11,0.63 -0.17,1.01 -0.17,1.16 0,0.53 0.29,0.79 0.87,0.79 0.25,0 0.58,-0.12 0.98,-0.37 l 0.92,1.31 c -1.29,1.04 -2.53,1.56 -3.72,1.56 -0.86,0 -1.57,-0.21 -2.11,-0.63 -0.54,-0.42 -0.81,-0.96 -0.81,-1.64 0,-0.29 0.04,-0.64 0.11,-1.05 l 0.91,-4.79 c 0.03,-0.16 0.04,-0.3 0.04,-0.43 0,-0.35 -0.13,-0.62 -0.38,-0.82 -0.25,-0.2 -0.6,-0.3 -1.06,-0.3 -0.87,0 -1.65,0.27 -2.34,0.82 l -1.59,8.64 v 0 z"
           id="path180547"
           style="fill:#010101;stroke-width:0px" />
        <path
           class="cls-2"
           d="m 508.64,36.53 -0.77,4.16 c -0.37,2.04 -0.65,3.4 -0.83,4.07 -0.18,0.67 -0.42,1.3 -0.73,1.89 -0.69,1.27 -1.66,2.32 -2.92,3.14 -1.36,0.89 -2.93,1.34 -4.71,1.34 -0.9,0 -1.63,-0.14 -2.17,-0.43 -0.58,-0.31 -0.87,-0.77 -0.87,-1.39 0,-0.42 0.15,-0.79 0.44,-1.11 0.41,-0.46 0.95,-0.69 1.6,-0.69 0.56,0 1.06,0.24 1.52,0.72 0.28,0.29 0.48,0.48 0.63,0.56 0.15,0.08 0.33,0.12 0.57,0.12 0.89,0 1.62,-0.54 2.19,-1.63 0.37,-0.71 0.75,-2.08 1.12,-4.11 l 1.23,-6.63 h -1.97 l 0.38,-2.09 h 1.97 c 0.24,-1.44 0.81,-2.61 1.71,-3.51 1.27,-1.28 2.97,-1.91 5.11,-1.91 0.8,0 1.46,0.11 1.97,0.34 0.75,0.33 1.12,0.84 1.12,1.53 0,0.43 -0.17,0.79 -0.5,1.07 -0.33,0.28 -0.76,0.43 -1.27,0.43 -0.4,0 -0.72,-0.06 -0.96,-0.19 -0.24,-0.13 -0.49,-0.37 -0.75,-0.72 -0.2,-0.27 -0.46,-0.41 -0.78,-0.41 -0.47,0 -0.85,0.2 -1.12,0.59 -0.27,0.39 -0.5,1.05 -0.67,1.97 l -0.15,0.83 h 2.25 l -0.39,2.09 h -2.25 z"
           id="path180549"
           style="fill:#010101;stroke-width:0px" />
        <path
           class="cls-2"
           d="m 525.63,41.5 -2.19,4.79 H 511.8 l -0.2,-2.36 c 0.3,-0.18 0.52,-0.31 0.68,-0.4 1.39,-0.8 2.28,-1.33 2.68,-1.58 0.4,-0.25 0.86,-0.56 1.37,-0.93 3.4,-2.48 5.1,-4.81 5.1,-6.98 0,-0.57 -0.21,-1.05 -0.63,-1.42 -0.42,-0.37 -0.95,-0.56 -1.6,-0.56 -0.88,0 -1.62,0.22 -2.22,0.66 -0.34,0.25 -0.52,0.53 -0.52,0.84 0,0.14 0.09,0.34 0.26,0.6 0.2,0.29 0.3,0.54 0.3,0.77 0,0.52 -0.23,0.98 -0.68,1.38 -0.44,0.39 -0.91,0.59 -1.43,0.59 -0.52,0 -0.97,-0.17 -1.3,-0.52 -0.33,-0.35 -0.49,-0.8 -0.49,-1.36 0,-1.03 0.47,-2 1.42,-2.92 1.34,-1.29 3.13,-1.94 5.37,-1.94 1.13,0 2.19,0.17 3.17,0.52 0.9,0.33 1.6,0.84 2.11,1.53 0.44,0.61 0.67,1.33 0.67,2.17 0,1.19 -0.5,2.33 -1.49,3.44 -0.56,0.63 -1.22,1.22 -1.99,1.79 -0.77,0.57 -1.93,1.31 -3.49,2.24 l -2.25,1.34 h 2.91 c 1.01,0 1.72,-0.05 2.14,-0.14 0.42,-0.09 0.79,-0.3 1.12,-0.61 0.34,-0.31 0.74,-0.82 1.19,-1.54 l 1.62,0.58 v 0 z"
           id="path180551"
           style="fill:#010101;stroke-width:0px" />
        <path
           class="cls-2"
           d="m 540.96,30.49 -1.7,9.23 h 3.41 l -1.16,2.32 h -2.7 l -0.16,0.83 c -0.02,0.13 -0.03,0.24 -0.03,0.34 0,0.7 0.45,1.09 1.34,1.16 l 0.59,0.04 -0.34,1.88 h -8.15 l 0.36,-1.88 0.64,-0.04 c 0.61,-0.04 1.05,-0.21 1.3,-0.48 0.25,-0.27 0.45,-0.79 0.59,-1.55 l 0.06,-0.29 h -6.99 l -0.51,-1.87 c 1.05,-0.99 1.86,-1.77 2.43,-2.35 0.57,-0.58 2.88,-2.93 6.91,-7.05 l 0.28,-0.28 h 3.83 v 0 z m -5.54,9.23 1.12,-6.12 c -0.29,0.3 -1.22,1.32 -2.79,3.05 -0.05,0.06 -1.05,1.08 -2.98,3.07 z"
           id="path180553"
           style="fill:#010101;stroke-width:0px" />
      </g>
      <path
         class="cls-17"
         d="m 145.81425,27.16535 c 1.92087,-1.447271 3.98462,-2.756958 6.33677,-3.423708 0.58737,-0.174625 1.21444,-0.306917 1.82298,-0.396875 3.41841,-0.552979 6.90033,-0.05292 10.26319,0.587375 1.56368,0.28575 3.14325,0.627063 4.67783,1.031875 0.96308,0.248708 1.84414,0.505354 2.76754,0.685271 1.77006,0.357187 3.61685,0.391583 5.4319,0.206375 1.73831,-0.187854 3.46339,-0.505354 5.12498,-1.087438 -1.3335,1.068917 -2.89984,1.820334 -4.50057,2.428875 -0.5715,0.209021 -1.1721,0.404813 -1.75948,0.558271 -1.12448,0.291042 -2.29923,0.518583 -3.46604,0.478896 -1.05833,-0.0291 -2.10608,-0.312208 -3.11679,-0.595313 -1.65629,-0.47625 -3.37344,-0.918104 -5.05619,-1.27 -4.79425,-1.037166 -9.18898,-2.01877 -14.04937,-0.632354 -1.47638,0.386292 -2.99773,1.000125 -4.47411,1.426104 v 0 z"
         id="path180557"
         style="fill:#2b54a3;stroke-width:0px" />
      <g
         id="g180769"
         inkscape:label="g180769"
         transform="matrix(0.26458333,0,0,0.26458333,38.155292,9.1287046)">
        <path
           class="cls-12"
           d="m 423.84,81.39 c 0.38,0.01 0.72,0.12 1.01,0.32 0.17,0.12 0.31,0.28 0.4,0.48 0.1,0.2 0.14,0.41 0.14,0.64 0,0.47 -0.14,0.91 -0.42,1.34 -0.51,0.78 -1.37,1.17 -2.58,1.17 h -4.15 l 0.14,-0.87 0.22,-0.02 c 0.25,-0.02 0.43,-0.1 0.54,-0.23 0.11,-0.13 0.2,-0.36 0.25,-0.68 l 0.62,-3.72 c 0.03,-0.16 0.04,-0.3 0.04,-0.42 0,-0.29 -0.17,-0.46 -0.52,-0.49 l -0.22,-0.02 0.14,-0.87 h 3.71 c 0.49,0 0.87,0.02 1.14,0.06 0.26,0.04 0.48,0.12 0.65,0.22 0.21,0.13 0.37,0.3 0.48,0.52 0.12,0.22 0.17,0.47 0.17,0.73 0,0.48 -0.17,0.89 -0.5,1.24 -0.33,0.34 -0.76,0.55 -1.29,0.62 z m -2.44,0.48 -0.22,1.3 c -0.07,0.54 -0.1,0.83 -0.1,0.86 0,0.27 0.25,0.4 0.76,0.4 0.26,0 0.48,-0.03 0.66,-0.1 0.18,-0.07 0.35,-0.18 0.5,-0.34 0.33,-0.32 0.49,-0.71 0.49,-1.16 0,-0.35 -0.1,-0.59 -0.29,-0.74 -0.19,-0.15 -0.52,-0.22 -0.98,-0.22 z m 0.15,-0.89 h 0.6 c 0.58,0 1.02,-0.11 1.3,-0.33 0.28,-0.21 0.42,-0.51 0.42,-0.88 0,-0.6 -0.4,-0.9 -1.2,-0.9 -0.29,0 -0.5,0.04 -0.64,0.12 -0.06,0.04 -0.12,0.1 -0.15,0.2 -0.04,0.1 -0.08,0.26 -0.12,0.49 l -0.22,1.3 z"
           id="path180737"
           style="fill:#231f20;stroke-width:0px" />
        <path
           class="cls-12"
           d="m 431.77,79.84 -0.57,3.4 c -0.05,0.29 -0.07,0.5 -0.07,0.6 0,0.12 0.03,0.22 0.1,0.3 0.07,0.08 0.15,0.12 0.25,0.12 0.11,0 0.26,-0.08 0.44,-0.25 l 0.39,0.62 c -0.21,0.25 -0.45,0.44 -0.73,0.58 -0.28,0.14 -0.56,0.21 -0.84,0.21 -0.6,0 -0.99,-0.24 -1.16,-0.71 -0.37,0.26 -0.69,0.45 -0.96,0.55 -0.26,0.1 -0.55,0.16 -0.84,0.16 -0.43,0 -0.79,-0.11 -1.06,-0.33 -0.26,-0.21 -0.39,-0.47 -0.39,-0.8 0,-0.16 0.01,-0.32 0.04,-0.49 l 0.32,-1.92 c 0.03,-0.19 0.05,-0.33 0.05,-0.41 0,-0.09 -0.02,-0.16 -0.06,-0.21 -0.08,-0.09 -0.26,-0.15 -0.52,-0.17 h -0.12 c 0,0 0.14,-0.89 0.14,-0.89 0.64,-0.03 1.27,-0.16 1.9,-0.37 h 0.52 l -0.55,3.29 c -0.04,0.21 -0.05,0.41 -0.05,0.58 0,0.15 0.06,0.28 0.17,0.37 0.11,0.09 0.26,0.15 0.44,0.15 0.32,0 0.65,-0.14 0.96,-0.42 l 0.66,-3.97 h 1.55 z"
           id="path180739"
           style="fill:#231f20;stroke-width:0px" />
        <path
           class="cls-12"
           d="m 435.44,81.8 0.78,0.27 c 0.32,0.11 0.56,0.23 0.71,0.35 0.13,0.11 0.24,0.25 0.32,0.42 0.08,0.17 0.12,0.34 0.12,0.52 0,0.39 -0.15,0.77 -0.44,1.12 -0.27,0.32 -0.64,0.57 -1.12,0.74 -0.4,0.14 -0.83,0.21 -1.29,0.21 -0.78,0 -1.42,-0.17 -1.92,-0.52 -0.25,-0.18 -0.38,-0.4 -0.38,-0.68 0,-0.19 0.06,-0.34 0.18,-0.46 0.12,-0.12 0.28,-0.18 0.46,-0.18 0.18,0 0.34,0.04 0.46,0.12 0.12,0.08 0.28,0.24 0.47,0.47 0.2,0.25 0.44,0.37 0.74,0.37 0.23,0 0.44,-0.06 0.62,-0.17 0.18,-0.12 0.27,-0.3 0.27,-0.52 0,-0.14 -0.04,-0.25 -0.12,-0.33 -0.08,-0.08 -0.23,-0.15 -0.45,-0.22 l -0.69,-0.22 c -0.3,-0.09 -0.55,-0.2 -0.74,-0.33 -0.17,-0.12 -0.3,-0.27 -0.4,-0.45 -0.1,-0.18 -0.15,-0.39 -0.15,-0.61 0,-0.41 0.14,-0.78 0.41,-1.11 0.21,-0.26 0.51,-0.47 0.89,-0.62 0.38,-0.15 0.8,-0.23 1.26,-0.23 0.6,0 1.1,0.11 1.51,0.32 0.41,0.22 0.62,0.48 0.62,0.79 0,0.17 -0.06,0.31 -0.17,0.43 -0.12,0.11 -0.26,0.17 -0.43,0.17 -0.16,0 -0.29,-0.03 -0.39,-0.1 -0.1,-0.07 -0.23,-0.2 -0.38,-0.4 -0.09,-0.12 -0.19,-0.21 -0.29,-0.26 -0.11,-0.05 -0.25,-0.07 -0.42,-0.07 -0.21,0 -0.38,0.05 -0.5,0.16 -0.12,0.11 -0.19,0.24 -0.19,0.41 0,0.15 0.04,0.28 0.13,0.36 0.07,0.07 0.25,0.15 0.54,0.25 z"
           id="path180741"
           style="fill:#231f20;stroke-width:0px" />
        <path
           class="cls-12"
           d="m 443.65,79.84 -0.58,3.46 c -0.05,0.27 -0.07,0.45 -0.07,0.54 0,0.12 0.04,0.22 0.11,0.31 0.07,0.08 0.16,0.12 0.27,0.12 0.14,0 0.31,-0.09 0.52,-0.26 l 0.42,0.57 c -0.55,0.57 -1.11,0.85 -1.66,0.85 -0.31,0 -0.57,-0.07 -0.78,-0.22 -0.21,-0.15 -0.34,-0.36 -0.42,-0.63 -0.14,0.19 -0.29,0.34 -0.45,0.46 -0.36,0.26 -0.76,0.39 -1.19,0.39 -0.54,0 -1,-0.21 -1.37,-0.63 -0.37,-0.42 -0.55,-0.97 -0.55,-1.66 0,-0.75 0.19,-1.42 0.58,-2.01 0.37,-0.56 0.86,-0.97 1.47,-1.21 0.29,-0.12 0.58,-0.17 0.88,-0.17 0.52,0 0.97,0.17 1.35,0.5 l 0.07,-0.41 z m -1.7,1.2 c -0.33,-0.23 -0.61,-0.35 -0.83,-0.35 -0.37,0 -0.7,0.21 -0.98,0.63 -0.16,0.24 -0.29,0.56 -0.4,0.96 -0.11,0.4 -0.16,0.76 -0.16,1.1 0,0.3 0.06,0.54 0.18,0.72 0.12,0.18 0.29,0.26 0.5,0.26 0.37,0 0.71,-0.28 1.01,-0.85 0.12,-0.23 0.23,-0.52 0.33,-0.86 0.09,-0.34 0.21,-0.88 0.36,-1.61 z"
           id="path180743"
           style="fill:#231f20;stroke-width:0px" />
        <path
           class="cls-12"
           d="m 446.24,85.34 h -1.56 l 0.57,-3.45 c 0.03,-0.19 0.05,-0.33 0.05,-0.41 0,-0.09 -0.02,-0.16 -0.06,-0.21 -0.08,-0.09 -0.26,-0.15 -0.52,-0.17 h -0.12 c 0,0 0.14,-0.89 0.14,-0.89 0.64,-0.03 1.27,-0.16 1.9,-0.37 h 0.52 l -0.09,0.55 c 0.21,-0.2 0.47,-0.35 0.76,-0.47 0.3,-0.12 0.59,-0.17 0.88,-0.17 0.39,0 0.72,0.1 0.99,0.29 0.12,0.09 0.23,0.22 0.31,0.38 0.08,0.16 0.12,0.32 0.12,0.49 0,0.13 -0.02,0.32 -0.07,0.58 l -0.31,1.89 c -0.05,0.29 -0.07,0.47 -0.07,0.54 0,0.25 0.12,0.37 0.37,0.37 0.11,0 0.24,-0.06 0.41,-0.17 l 0.38,0.61 c -0.54,0.48 -1.06,0.73 -1.56,0.73 -0.36,0 -0.66,-0.1 -0.89,-0.29 -0.23,-0.19 -0.34,-0.45 -0.34,-0.76 0,-0.13 0.02,-0.3 0.05,-0.49 l 0.38,-2.22 c 0.01,-0.07 0.02,-0.14 0.02,-0.2 0,-0.16 -0.05,-0.29 -0.16,-0.38 -0.11,-0.09 -0.25,-0.14 -0.44,-0.14 -0.37,0 -0.69,0.13 -0.98,0.38 l -0.66,4.01 z"
           id="path180745"
           style="fill:#231f20;stroke-width:0px" />
        <path
           class="cls-12"
           d="m 451.86,86.74 -0.38,-0.39 c 0.41,-0.39 0.67,-0.7 0.79,-0.95 -0.06,0.01 -0.11,0.02 -0.14,0.02 -0.21,0 -0.37,-0.07 -0.48,-0.21 -0.12,-0.15 -0.18,-0.33 -0.18,-0.56 0,-0.33 0.12,-0.62 0.35,-0.87 0.24,-0.25 0.51,-0.38 0.83,-0.38 0.23,0 0.42,0.08 0.56,0.24 0.14,0.16 0.21,0.37 0.21,0.63 0,0.4 -0.14,0.82 -0.43,1.26 -0.28,0.44 -0.66,0.84 -1.14,1.19 z"
           id="path180747"
           style="fill:#231f20;stroke-width:0px" />
        <path
           class="cls-12"
           d="m 464.23,78 0.08,2.47 h -0.75 c -0.14,-0.47 -0.33,-0.82 -0.58,-1.06 -0.41,-0.4 -0.91,-0.6 -1.51,-0.6 -0.32,0 -0.6,0.07 -0.84,0.22 -0.27,0.16 -0.41,0.38 -0.41,0.65 0,0.2 0.08,0.36 0.25,0.49 0.1,0.08 0.36,0.18 0.8,0.3 l 1.24,0.36 c 0.62,0.18 1.05,0.4 1.32,0.67 0.37,0.37 0.55,0.83 0.55,1.39 0,0.46 -0.14,0.9 -0.42,1.31 -0.29,0.42 -0.7,0.74 -1.24,0.98 -0.47,0.21 -0.97,0.31 -1.5,0.31 -0.81,0 -1.53,-0.21 -2.16,-0.63 l -0.21,0.48 h -0.65 l -0.43,-2.75 0.76,-0.15 c 0.19,0.58 0.43,1.03 0.72,1.34 0.47,0.5 1.06,0.76 1.78,0.76 0.42,0 0.77,-0.1 1.04,-0.31 0.25,-0.19 0.38,-0.44 0.38,-0.74 0,-0.26 -0.08,-0.46 -0.25,-0.63 -0.12,-0.1 -0.32,-0.2 -0.63,-0.28 l -1.28,-0.34 c -0.64,-0.17 -1.1,-0.39 -1.38,-0.67 -0.35,-0.35 -0.52,-0.8 -0.52,-1.37 0,-0.73 0.29,-1.3 0.87,-1.73 0.54,-0.41 1.21,-0.61 2.01,-0.61 0.8,0 1.5,0.2 2.14,0.6 L 463.62,78 h 0.62 z"
           id="path180749"
           style="fill:#231f20;stroke-width:0px" />
        <path
           class="cls-12"
           d="m 467.98,79.74 c 0.79,0 1.39,0.21 1.81,0.63 0.39,0.38 0.58,0.93 0.58,1.65 0,0.58 -0.15,1.16 -0.45,1.74 -0.3,0.57 -0.71,1.01 -1.24,1.3 -0.46,0.25 -0.97,0.38 -1.53,0.38 -0.68,0 -1.22,-0.17 -1.64,-0.49 -0.23,-0.19 -0.42,-0.43 -0.55,-0.73 -0.13,-0.3 -0.2,-0.63 -0.2,-0.98 0,-0.66 0.16,-1.29 0.49,-1.89 0.32,-0.6 0.76,-1.03 1.31,-1.29 0.42,-0.2 0.89,-0.31 1.4,-0.31 z m -0.04,0.94 c -0.22,0 -0.41,0.06 -0.57,0.19 -0.16,0.13 -0.3,0.33 -0.44,0.61 -0.12,0.25 -0.23,0.59 -0.32,1 -0.09,0.42 -0.13,0.78 -0.13,1.08 0,0.3 0.07,0.52 0.2,0.68 0.13,0.16 0.32,0.24 0.56,0.24 0.44,0 0.78,-0.26 1.03,-0.79 0.11,-0.24 0.22,-0.56 0.31,-0.98 0.09,-0.41 0.14,-0.75 0.14,-1.01 0,-0.35 -0.06,-0.6 -0.18,-0.76 -0.12,-0.17 -0.32,-0.26 -0.6,-0.26 z"
           id="path180751"
           style="fill:#231f20;stroke-width:0px" />
        <path
           class="cls-12"
           d="m 476.67,79.84 -0.57,3.4 c -0.05,0.29 -0.07,0.5 -0.07,0.6 0,0.12 0.03,0.22 0.1,0.3 0.07,0.08 0.15,0.12 0.25,0.12 0.11,0 0.26,-0.08 0.44,-0.25 l 0.39,0.62 c -0.21,0.25 -0.45,0.44 -0.73,0.58 -0.28,0.14 -0.56,0.21 -0.84,0.21 -0.6,0 -0.99,-0.24 -1.17,-0.71 -0.37,0.26 -0.69,0.45 -0.96,0.55 -0.26,0.1 -0.55,0.16 -0.84,0.16 -0.43,0 -0.79,-0.11 -1.06,-0.33 -0.26,-0.21 -0.39,-0.47 -0.39,-0.8 0,-0.16 0.01,-0.32 0.04,-0.49 l 0.32,-1.92 c 0.03,-0.19 0.05,-0.33 0.05,-0.41 0,-0.09 -0.02,-0.16 -0.06,-0.21 -0.08,-0.09 -0.26,-0.15 -0.52,-0.17 h -0.12 c 0,0 0.14,-0.89 0.14,-0.89 0.64,-0.03 1.27,-0.16 1.9,-0.37 h 0.51 l -0.55,3.29 c -0.04,0.21 -0.05,0.41 -0.05,0.58 0,0.15 0.06,0.28 0.17,0.37 0.12,0.1 0.26,0.15 0.44,0.15 0.32,0 0.64,-0.14 0.96,-0.42 l 0.67,-3.97 h 1.55 z"
           id="path180753"
           style="fill:#231f20;stroke-width:0px" />
        <path
           class="cls-12"
           d="m 480.1,80.8 -0.49,2.9 c -0.01,0.08 -0.02,0.16 -0.02,0.23 0,0.22 0.11,0.33 0.33,0.33 0.1,0 0.26,-0.05 0.47,-0.15 0.21,-0.1 0.4,-0.22 0.57,-0.35 l 0.42,0.72 c -0.28,0.29 -0.61,0.53 -0.99,0.7 -0.38,0.17 -0.76,0.25 -1.13,0.25 -0.41,0 -0.73,-0.09 -0.95,-0.28 -0.22,-0.18 -0.33,-0.45 -0.33,-0.79 0,-0.1 0.03,-0.3 0.08,-0.61 l 0.49,-2.96 h -0.68 l 0.12,-0.71 c 0.44,-0.12 0.78,-0.32 1.03,-0.59 0.25,-0.27 0.46,-0.7 0.64,-1.27 h 0.89 l -0.26,1.6 h 1.36 l -0.16,0.97 h -1.36 z"
           id="path180755"
           style="fill:#231f20;stroke-width:0px" />
        <path
           class="cls-12"
           d="m 481.8,85.34 0.97,-5.8 c 0.03,-0.2 0.05,-0.34 0.05,-0.41 0,-0.09 -0.02,-0.16 -0.06,-0.21 -0.08,-0.09 -0.25,-0.14 -0.5,-0.17 h -0.11 c 0,0 0.14,-0.89 0.14,-0.89 0.67,-0.01 1.29,-0.15 1.86,-0.41 h 0.52 l -0.47,2.84 c 0.51,-0.38 1.05,-0.56 1.63,-0.56 0.42,0 0.77,0.11 1.03,0.33 0.29,0.24 0.43,0.54 0.43,0.91 0,0.08 0,0.17 -0.02,0.28 l -0.37,2.18 c -0.04,0.28 -0.07,0.46 -0.07,0.54 0,0.09 0.03,0.16 0.09,0.22 0.06,0.06 0.14,0.08 0.23,0.08 0.17,0 0.37,-0.07 0.59,-0.2 l 0.41,0.61 c -0.24,0.23 -0.5,0.41 -0.8,0.55 -0.3,0.14 -0.59,0.2 -0.87,0.2 -0.38,0 -0.68,-0.1 -0.91,-0.3 -0.23,-0.2 -0.34,-0.47 -0.34,-0.8 0,-0.13 0.03,-0.37 0.09,-0.72 l 0.27,-1.63 c 0.05,-0.29 0.07,-0.48 0.07,-0.56 0,-0.14 -0.06,-0.25 -0.18,-0.34 -0.12,-0.09 -0.27,-0.13 -0.46,-0.13 -0.35,0 -0.68,0.1 -0.98,0.31 l -0.68,4.08 z"
           id="path180757"
           style="fill:#231f20;stroke-width:0px" />
        <path
           class="cls-12"
           d="m 496.64,80.62 1.33,2.66 c 0.22,0.44 0.4,0.73 0.52,0.85 0.12,0.12 0.34,0.24 0.65,0.33 l -0.15,0.87 h -3.53 l 0.14,-0.87 0.1,-0.02 c 0.3,-0.05 0.48,-0.1 0.53,-0.15 0.06,-0.06 0.09,-0.12 0.09,-0.2 0,-0.09 -0.06,-0.27 -0.18,-0.53 l -0.87,-1.83 -0.98,0.8 -0.16,0.99 c -0.02,0.13 -0.03,0.27 -0.03,0.42 0,0.29 0.17,0.46 0.52,0.49 l 0.22,0.02 -0.14,0.87 h -3.43 l 0.14,-0.87 0.22,-0.02 c 0.25,-0.02 0.43,-0.1 0.54,-0.23 0.11,-0.13 0.2,-0.36 0.25,-0.68 l 0.62,-3.72 c 0.03,-0.16 0.04,-0.3 0.04,-0.42 0,-0.29 -0.17,-0.46 -0.52,-0.49 l -0.22,-0.02 0.14,-0.87 h 3.43 l -0.14,0.87 -0.22,0.02 c -0.25,0.02 -0.43,0.1 -0.54,0.23 -0.11,0.13 -0.2,0.36 -0.25,0.68 l -0.24,1.46 2.03,-1.74 c 0.26,-0.22 0.39,-0.37 0.39,-0.43 0,-0.09 -0.12,-0.15 -0.35,-0.19 l -0.27,-0.04 0.14,-0.87 h 3.34 l -0.14,0.87 c -0.38,0.07 -0.67,0.15 -0.85,0.23 -0.36,0.15 -0.73,0.37 -1.1,0.67 l -1.06,0.85 z"
           id="path180759"
           style="fill:#231f20;stroke-width:0px" />
        <path
           class="cls-12"
           d="m 502.47,79.74 c 0.79,0 1.39,0.21 1.81,0.63 0.39,0.38 0.58,0.93 0.58,1.65 0,0.58 -0.15,1.16 -0.45,1.74 -0.3,0.57 -0.71,1.01 -1.24,1.3 -0.46,0.25 -0.97,0.38 -1.53,0.38 -0.68,0 -1.22,-0.17 -1.64,-0.49 -0.23,-0.19 -0.42,-0.43 -0.55,-0.73 -0.13,-0.3 -0.2,-0.63 -0.2,-0.98 0,-0.66 0.16,-1.29 0.49,-1.89 0.32,-0.6 0.76,-1.03 1.31,-1.29 0.42,-0.2 0.89,-0.31 1.4,-0.31 z m -0.04,0.94 c -0.22,0 -0.41,0.06 -0.57,0.19 -0.16,0.13 -0.3,0.33 -0.44,0.61 -0.12,0.25 -0.23,0.59 -0.32,1 -0.09,0.42 -0.13,0.78 -0.13,1.08 0,0.3 0.07,0.52 0.2,0.68 0.13,0.16 0.32,0.24 0.56,0.24 0.44,0 0.78,-0.26 1.03,-0.79 0.11,-0.24 0.22,-0.56 0.31,-0.98 0.09,-0.41 0.14,-0.75 0.14,-1.01 0,-0.35 -0.06,-0.6 -0.18,-0.76 -0.12,-0.17 -0.32,-0.26 -0.6,-0.26 z"
           id="path180761"
           style="fill:#231f20;stroke-width:0px" />
        <path
           class="cls-12"
           d="m 505.51,85.34 0.57,-3.45 c 0.03,-0.19 0.05,-0.33 0.05,-0.41 0,-0.09 -0.02,-0.16 -0.06,-0.21 -0.08,-0.09 -0.26,-0.15 -0.52,-0.17 h -0.12 c 0,0 0.14,-0.89 0.14,-0.89 0.64,-0.03 1.27,-0.16 1.9,-0.37 h 0.51 l -0.14,0.81 c 0.46,-0.61 0.96,-0.91 1.53,-0.91 0.29,0 0.52,0.08 0.7,0.23 0.18,0.16 0.27,0.36 0.27,0.6 0,0.24 -0.08,0.47 -0.25,0.64 -0.17,0.17 -0.38,0.25 -0.63,0.25 -0.21,0 -0.42,-0.09 -0.63,-0.26 -0.11,-0.09 -0.21,-0.14 -0.29,-0.14 -0.09,0 -0.19,0.04 -0.3,0.12 -0.1,0.08 -0.19,0.19 -0.27,0.32 -0.1,0.17 -0.18,0.35 -0.24,0.53 -0.06,0.19 -0.13,0.47 -0.22,0.85 -0.1,0.45 -0.18,0.86 -0.24,1.24 l -0.2,1.2 h -1.56 z"
           id="path180763"
           style="fill:#231f20;stroke-width:0px" />
        <path
           class="cls-12"
           d="M 514.47,83.47 515,84.1 c -0.17,0.2 -0.4,0.41 -0.7,0.62 -0.36,0.25 -0.7,0.44 -1.01,0.55 -0.32,0.11 -0.65,0.17 -0.99,0.17 -0.66,0 -1.21,-0.19 -1.62,-0.58 -0.22,-0.2 -0.39,-0.45 -0.52,-0.75 -0.12,-0.3 -0.18,-0.62 -0.18,-0.96 0,-0.67 0.2,-1.3 0.61,-1.88 0.4,-0.57 0.92,-0.99 1.55,-1.26 0.44,-0.19 0.91,-0.28 1.4,-0.28 0.49,0 0.89,0.11 1.2,0.32 0.36,0.25 0.53,0.58 0.53,1 0,0.66 -0.36,1.15 -1.09,1.46 -0.66,0.28 -1.4,0.42 -2.24,0.42 -0.06,0 -0.14,0 -0.25,0 -0.02,0.17 -0.03,0.33 -0.03,0.46 0,0.3 0.09,0.54 0.27,0.73 0.18,0.18 0.41,0.27 0.71,0.27 0.57,0 1.19,-0.31 1.85,-0.94 z m -2.66,-1.27 c 0.56,0 1.04,-0.11 1.42,-0.33 0.38,-0.21 0.56,-0.47 0.56,-0.78 0,-0.15 -0.05,-0.27 -0.15,-0.37 -0.1,-0.1 -0.24,-0.14 -0.4,-0.14 -0.36,0 -0.69,0.21 -1,0.63 -0.23,0.33 -0.38,0.66 -0.44,0.99 z"
           id="path180765"
           style="fill:#231f20;stroke-width:0px" />
        <path
           class="cls-12"
           d="m 521.31,79.84 -0.58,3.46 c -0.05,0.27 -0.07,0.45 -0.07,0.54 0,0.12 0.04,0.22 0.11,0.31 0.07,0.08 0.16,0.12 0.27,0.12 0.14,0 0.31,-0.09 0.52,-0.26 l 0.42,0.57 c -0.55,0.57 -1.11,0.85 -1.66,0.85 -0.31,0 -0.57,-0.07 -0.78,-0.22 -0.21,-0.15 -0.34,-0.36 -0.42,-0.63 -0.14,0.19 -0.29,0.34 -0.45,0.46 -0.36,0.26 -0.76,0.39 -1.19,0.39 -0.54,0 -1,-0.21 -1.37,-0.63 -0.37,-0.42 -0.55,-0.97 -0.55,-1.66 0,-0.75 0.19,-1.42 0.58,-2.01 0.37,-0.56 0.86,-0.97 1.47,-1.21 0.29,-0.12 0.58,-0.17 0.88,-0.17 0.52,0 0.97,0.17 1.35,0.5 l 0.07,-0.41 z m -1.7,1.2 c -0.33,-0.23 -0.61,-0.35 -0.83,-0.35 -0.37,0 -0.7,0.21 -0.98,0.63 -0.16,0.24 -0.29,0.56 -0.4,0.96 -0.11,0.4 -0.16,0.76 -0.16,1.1 0,0.3 0.06,0.54 0.18,0.72 0.12,0.18 0.29,0.26 0.5,0.26 0.37,0 0.71,-0.28 1.01,-0.85 0.12,-0.23 0.23,-0.52 0.33,-0.86 0.09,-0.34 0.21,-0.88 0.36,-1.61 z"
           id="path180767"
           style="fill:#231f20;stroke-width:0px" />
      </g>
    </g>
  </g>
</svg>
