<?xml version="1.0" encoding="utf-8"?>
<!-- Generator: Adobe Illustrator 28.0.0, SVG Export Plug-In . SVG Version: 6.00 Build 0)  -->
<svg version="1.1" id="svg2" xmlns="http://www.w3.org/2000/svg" xmlns:xlink="http://www.w3.org/1999/xlink" x="0px" y="0px"
	 viewBox="0 0 734 515.7" style="enable-background:new 0 0 734 515.7;" xml:space="preserve">
<style type="text/css">
	.st0{fill:#66412A;}
	.st1{fill-rule:evenodd;clip-rule:evenodd;fill:#66412A;}
	.st2{fill:#7EB448;}
	.st3{fill-rule:evenodd;clip-rule:evenodd;fill:#7EB448;}
</style>
<path id="path14" class="st0" d="M53.8,378.1l29.9-25.5v-17.2L52.1,361l-28.5-26.7v19.4l26,24.3C51.6,380.2,53.8,378.1,53.8,378.1"
	/>
<path id="path16" class="st0" d="M431.7,334.8v62.1h14.9v-40.5c-0.1-0.9-0.2-1.9-0.3-3c0.1,0.1,0.2,0.2,0.3,0.3v-16.6l-1-2.3
	L431.7,334.8z M502.5,367.4c0,1.9,0.3,5.5,0.7,10.7c-2.6-2.5-5.4-4.7-8.4-6.7l-38.7-27.5v17.3l50,35.7h11.6v-62.1h-15.3V367.4z
	 M349.9,334.8l-41.4,62.1h17l8.5-13.6h0.6l6.6-11.2l16.3-25.3l15.7,25.3h-20.3l-7.5,11.2h34.8l8.8,13.6h19.1l-42-62.1H349.9z
	 M679.1,385.3v-50.4h-17v62.1h71.9v-11.7L679.1,385.3z M605.8,369.9v-10.6h-17.4v10.6H605.8z M572,345.4h57.8v-10.6H555v62.1h75.5
	v-11.7H572L572,345.4z M14.2,334.8H0v62.1h14l0.2-61.6L14.2,334.8z M311.6,334.8h-84.3v11.1h33.6v0.1h17v-0.1h33.7V334.8z
	 M93.8,336.2v60.8h14.8v-62.1H93.8L93.8,336.2z M260.9,396.9h17v-39.5h-17V396.9z M171.8,334.8l-41.4,62.1h17l8.5-13.6h0.6l6.6-11.2
	l16.3-25.3l15.7,25.3h-20.2l-7.5,11.2h34.8l8.8,13.6h19.1l-42-62.1H171.8"/>
<path id="path18" class="st1" d="M180.4,291.3c6.1,0,10.2-1.2,12.1-3.7c1.9-2.5,2.9-5.9,2.9-10.1V16.1c0-4.2-1.1-7.6-3.2-10.1
	c-0.3-0.4-0.8-0.8-1.2-1.1h-10.8L180.4,291.3z M536.1,4.9c-0.4,0.3-0.9,0.7-1.2,1.1c-2.1,2.5-3.2,5.9-3.2,10.1v261.4
	c0,4.2,1,7.6,3.2,10.1c1.9,2.3,5.7,3.5,11.2,3.7V4.9L536.1,4.9"/>
<path id="path20" class="st2" d="M92.3,427.2h25.4v5.8H99.7v4.5h17.1v5.6H99.7v8.3h-7.4L92.3,427.2"/>
<path id="path22" class="st2" d="M156,440.7c0,3.5,0.7,4.9,4.3,4.9h9.5c3.5,0,4.3-1.3,4.3-4.9v-2.6c0-3-0.7-4.9-4.7-4.9h-8.7
	c-3.9,0-4.7,1.8-4.7,4.9L156,440.7z M148.4,435.7c0-7.1,4-8.8,10.7-8.8H171c6.7,0,10.7,1.7,10.7,8.8v7.2c0,7.1-4,8.8-10.7,8.8h-11.9
	c-6.7,0-10.7-1.7-10.7-8.8V435.7"/>
<path id="path24" class="st2" d="M213.1,427.2h7.4v14c0,3.1,1.1,4.3,4.2,4.3h7.4c3.1,0,4.2-1.2,4.2-4.3v-14h7.4v15.6
	c0,6-3.1,8.9-10,8.9H223c-6.8,0-10-2.9-10-8.9V427.2"/>
<path id="path26" class="st2" d="M275.5,427.2h11.5l14,17.6h0.1v-17.6h7.4v24.3H297l-14-17.6H283v17.6h-7.4V427.2"/>
<path id="path28" class="st2" d="M348.1,445.3h13.2c3.2,0,4.4-0.9,4.4-4.4v-3.3c0-3.5-1.2-4.4-4.4-4.4h-13.2V445.3z M340.7,427.2
	h22.5c7.4,0,10.1,2.4,10.1,8.5v7.4c0,6-2.6,8.5-10.1,8.5h-22.5V427.2"/>
<path id="path30" class="st2" d="M415.4,442h9.5l-4.8-9.1L415.4,442z M415.3,427.2h9.7l13.3,24.3H430l-2.3-4.3h-15.1l-2.2,4.3h-8.3
	L415.3,427.2"/>
<path id="path32" class="st2" d="M463.5,427.2h28.4v6h-10.5v18.2H474v-18.2h-10.5V427.2"/>
<path id="path34" class="st2" d="M522.4,427.2h7.4v24.3h-7.4V427.2"/>
<path id="path36" class="st2" d="M569.2,440.7c0,3.5,0.7,4.9,4.3,4.9h9.5c3.5,0,4.3-1.3,4.3-4.9v-2.6c0-3-0.7-4.9-4.7-4.9h-8.7
	c-3.9,0-4.7,1.8-4.7,4.9V440.7z M561.6,435.7c0-7.1,4-8.8,10.7-8.8h11.9c6.7,0,10.7,1.7,10.7,8.8v7.2c0,7.1-4,8.8-10.7,8.8h-11.9
	c-6.7,0-10.7-1.7-10.7-8.8V435.7"/>
<path id="path38" class="st2" d="M626.2,427.2h11.5l14,17.6h0.1v-17.6h7.4v24.3h-11.5l-14-17.6h-0.1v17.6h-7.4L626.2,427.2"/>
<path id="path54" class="st1" d="M471.3,292v-6.9c6.5,0,10.8-1.2,13-3.7c2.1-2.5,3.2-5.9,3.2-10.1V43.8l-1.7-1.1L363.2,286.2
	L240.1,42.7l-0.6,1.1v227.5c-0.4,4.2,0.4,7.6,2.3,10.1c1.9,2.5,5.6,3.7,10.9,3.7v6.9"/>
<path id="path56" class="st3" d="M362.4,195.5l97.3-184.3c0.4-1.1,0.9-2.3,1.4-3.5s0.9-2.3,0.9-3.5c0-1.6-0.8-3-2.3-4.3H268.4
	c-1.4,1.2-2.2,2.8-2.2,4.8c0,2.3,0.8,4.4,2.3,6.3L362.4,195.5"/>
<g>
	<g>
		<path class="st0" d="M123.3,493.1v0.6l0.1,3.8c0,2.1-0.5,3.9-1.4,5.5s-3.2,2.5-7,2.8c-1.2,0-2.4,0.1-3.6,0.1c-1.2,0-2.4,0-3.6,0
			c-5.4,0-9.5-0.6-12.1-1.7c-2.6-1.1-3.9-3.7-3.9-7.7c0-0.3,0-0.6,0-0.8c0-0.3,0-0.5,0.1-0.8c0-0.3,0-0.5,0-0.8c0-0.3,0-0.6,0-0.8
			c0-0.2,0-0.4,0-0.6s0-0.4,0-0.6c0-0.3,0-0.7,0-1c0-0.3,0-0.7,0.1-1.1c0-1,0.2-2,0.5-2.9c0.3-1,0.9-1.9,1.8-2.7
			c1.1-1,2.5-1.7,4.1-2.1c1.7-0.4,3.4-0.6,5.2-0.7c0.5,0,1.1,0,1.6,0c0.5,0,1,0,1.5,0h3.2c4.5,0,7.9,0.4,10,1.2
			c2.1,0.8,3.2,2.9,3.3,6.1h-6.9c0-1.1-0.3-1.9-0.9-2.5c-0.6-0.6-1.8-0.9-3.5-1c-0.6,0-1.3,0-1.9-0.1c-0.6,0-1.3,0-1.9,0
			c-4.4,0-7,0.4-7.8,1.3c-0.8,0.9-1.2,2.7-1.3,5.6c0,0.2,0,0.4,0,0.6s0,0.4,0,0.6l0.1,3.1c0,2.5,0.6,4,1.8,4.6
			c1.2,0.6,3.5,0.9,7.1,0.9c3.3,0,5.6-0.3,6.8-0.8c1.2-0.5,1.8-1.9,1.8-4.2c0,0,0-0.1,0-0.2s0-0.1,0-0.2c0,0-0.1-0.1-0.1-0.2
			c0-0.1,0-0.1,0-0.2h-9.1v-3.4H123.3z"/>
		<path class="st0" d="M107.9,506.5c-5.5,0-9.6-0.6-12.3-1.8c-2.8-1.2-4.2-4-4.2-8.1v-0.8c0-0.3,0-0.6,0.1-0.9l0-3.7
			c0-0.4,0-0.7,0.1-1.1c0-1,0.2-2,0.5-3c0.3-1,1-2,1.9-2.9c1.1-1.1,2.6-1.8,4.4-2.2c1.7-0.4,3.5-0.6,5.3-0.7c0.5,0,1.1,0,1.6,0h4.7
			c4.6,0,8,0.4,10.2,1.3c2.3,0.9,3.6,3.1,3.6,6.6l0,0.5h-7.9V489c0-0.9-0.3-1.6-0.8-2.1c-0.5-0.5-1.6-0.8-3.2-0.8
			c-0.6,0-1.3,0-1.9-0.1c-0.6,0-1.3,0-1.9,0c-5.6,0-7.1,0.7-7.5,1.1c-0.5,0.5-1.1,1.8-1.2,5.2v1.2l0.1,3.1c0,2.3,0.5,3.7,1.5,4.2
			c1.1,0.5,3.4,0.8,6.9,0.8c3.2,0,5.5-0.2,6.6-0.7c1-0.4,1.5-1.7,1.5-3.7V497h-9.1v-4.4h16.9v1.1l0.1,3.8c0,2.2-0.5,4.1-1.4,5.8
			c-1,1.7-3.4,2.7-7.4,3c-1.2,0-2.4,0.1-3.6,0.1C110.3,506.5,109.1,506.5,107.9,506.5z M105.2,482.1c-0.5,0-1,0-1.6,0
			c-1.8,0.1-3.5,0.3-5.1,0.7c-1.6,0.4-2.9,1-3.9,2c-0.8,0.8-1.3,1.6-1.6,2.5c-0.3,0.9-0.5,1.9-0.5,2.8c0,0.4-0.1,0.7-0.1,1v3.8
			c0,0.3-0.1,0.6-0.1,0.8v0.8c0,3.8,1.2,6.2,3.6,7.2c2.5,1.1,6.5,1.7,11.9,1.7c1.2,0,2.4,0,3.6,0c1.2,0,2.4-0.1,3.6-0.1
			c3.5-0.3,5.8-1.2,6.6-2.5c0.9-1.5,1.3-3.2,1.3-5.2l-0.1-4h-14.9v2.4h9.1v0.6l0.1,0.1v0.5c0,2.5-0.7,4-2.1,4.6
			c-1.3,0.5-3.6,0.8-7,0.8c-3.7,0-6.1-0.3-7.3-0.9c-1.3-0.7-2-2.4-2.1-5l-0.1-4.3c0.1-3,0.5-4.9,1.4-5.9c0.6-0.6,2-1.4,8.2-1.4
			c0.7,0,1.3,0,2,0c0.7,0,1.3,0,2,0.1c1.8,0.1,3.1,0.4,3.8,1.1c0.6,0.6,1,1.4,1.1,2.4h5.9c-0.2-2.8-1.1-4.5-3-5.2
			c-2.1-0.8-5.4-1.2-9.8-1.2H105.2z"/>
	</g>
	<g>
		<path class="st0" d="M137.3,481.8h17.5c4.1,0,7.1,0.5,9,1.6c1.8,1,2.8,3,2.8,5.9c0,0.3,0,0.6,0,0.9c0,0.3,0,0.6-0.1,0.9
			c-0.1,0.7-0.3,1.3-0.6,2c-0.3,0.6-0.8,1.2-1.6,1.6c-0.4,0.2-0.9,0.4-1.4,0.6c-0.5,0.1-1.1,0.3-1.6,0.4c-0.2,0-0.4,0.1-0.6,0.1
			c-0.2,0-0.4,0.1-0.6,0.1v0.1c2.1,0.1,3.7,0.5,4.6,1.3s1.5,1.9,1.5,3.3v5.3h-7v-4.4l0.1-0.5c0-1.2-0.5-2.1-1.5-2.5
			c-1-0.4-2.3-0.6-3.9-0.6H144v8h-6.7V481.8z M153.7,493.9c2.1,0,3.6-0.3,4.5-0.8c0.8-0.6,1.3-1.5,1.3-2.9c0-1.5-0.2-2.6-0.7-3.3
			c-0.5-0.7-2-1.1-4.6-1.1H144v8.1H153.7z"/>
		<path class="st0" d="M166.6,506.3h-8v-4.9l0.1-0.6c0-1-0.4-1.6-1.2-2c-0.9-0.4-2.2-0.6-3.7-0.6h-9.2v8h-7.7v-25h18
			c4.3,0,7.3,0.5,9.2,1.6c2,1.1,3,3.2,3,6.3v0.9c0,0.3,0,0.7-0.1,1c-0.1,0.7-0.3,1.4-0.6,2.1c-0.3,0.7-1,1.4-1.8,1.8
			c-0.5,0.3-1,0.5-1.5,0.6c-0.1,0-0.2,0-0.3,0.1c0.9,0.2,1.7,0.6,2.3,1.1c1.1,0.9,1.6,2.1,1.6,3.7V506.3z M159.6,505.3h6v-4.8
			c0-1.3-0.4-2.2-1.3-2.9c-0.9-0.7-2.3-1.1-4.4-1.2l-0.5,0v-1.1l0.4,0c0.2,0,0.4-0.1,0.6-0.1c0.2,0,0.4-0.1,0.7-0.1
			c0.5-0.1,1-0.2,1.5-0.3c0.5-0.1,0.9-0.3,1.3-0.5c0.7-0.4,1.1-0.8,1.4-1.4c0.3-0.6,0.5-1.2,0.5-1.8c0.1-0.3,0.1-0.6,0.1-0.9v-0.9
			c0-2.7-0.8-4.5-2.5-5.4c-1.8-1-4.7-1.5-8.7-1.5h-17v23h5.7v-8h10.2c1.7,0,3.1,0.2,4.1,0.7c1.2,0.5,1.8,1.5,1.8,2.9l-0.1,0.6
			L159.6,505.3z M153.7,494.4h-10.2v-9.1h10.7c2.8,0,4.4,0.4,5,1.3c0.5,0.8,0.8,2,0.8,3.6c0,1.5-0.5,2.6-1.5,3.3
			C157.5,494.1,156,494.4,153.7,494.4z M144.5,493.4h9.2c2,0,3.4-0.3,4.2-0.8c0.7-0.5,1-1.3,1-2.4c0-1.4-0.2-2.4-0.6-3.1
			c-0.2-0.3-1-0.9-4.1-0.9h-9.7V493.4z"/>
	</g>
	<g>
		<path class="st0" d="M187.4,501.2l-2.2,4.6H178l12-24h10.2l12.2,24h-7l-2.3-4.6H187.4z M195.2,485.3l-6.2,12.5h12.4L195.2,485.3z"
			/>
		<path class="st0" d="M213.2,506.3h-8.1l-2.3-4.6h-15l-2.2,4.6h-8.3l12.5-25h10.8L213.2,506.3z M205.7,505.3h5.9l-11.7-23h-9.5
			l-11.5,23h6.1l2.2-4.6h16.2L205.7,505.3z M202.3,498.3h-14l7-14.1L202.3,498.3z M189.9,497.3h10.8l-5.4-10.8L189.9,497.3z"/>
	</g>
	<g>
		<path class="st0" d="M258.1,505.8h-11.4l-15.2-20.1h-0.2l0.2,20.1h-6.7v-24h11.4l15.2,20.1h0.2l-0.2-20.1h6.8V505.8z"/>
		<path class="st0" d="M258.6,506.3h-12.2L231.7,487l0.2,19.4h-7.7v-25h12.1l14.7,19.4l-0.2-19.4h7.8V506.3z M246.9,505.3h10.7v-23
			h-5.7l0.2,20.1h-1l-15.2-20.1h-10.6v23h5.7l-0.2-20.1h1L246.9,505.3z"/>
	</g>
	<g>
		<path class="st0" d="M288.2,505.8h-7v-19.9h-10.4v-4.1h28v4.1h-10.6V505.8z"/>
		<path class="st0" d="M288.7,506.3h-8v-19.9h-10.4v-5.1h29v5.1h-10.6V506.3z M281.7,505.3h6v-19.9h10.6v-3.1h-27v3.1h10.4V505.3z"
			/>
	</g>
	<g>
		<path class="st0" d="M317.4,491.9h16.9v3.3h-16.9v6.8h17.9v3.8h-24.6v-24h24.5v3.8h-17.8V491.9z"/>
		<path class="st0" d="M335.8,506.3h-25.6v-25h25.5v4.8h-17.8v5.3h16.9v4.3h-16.9v5.8h17.9V506.3z M311.2,505.3h23.6v-2.8h-17.9
			v-7.8h16.9v-2.3h-16.9v-7.3h17.8v-2.8h-23.5V505.3z"/>
	</g>
	<g>
		<path class="st0" d="M350.6,481.8h17.7c4.6,0,8,0.7,10.2,2.1c2.2,1.4,3.3,3.7,3.3,6.8c0,0.3,0,0.7,0,1s0,0.7,0.1,1
			c0,0.3,0,0.7,0,1s0,0.7,0,1c0,3-0.7,5.6-2.1,7.8c-1.4,2.2-4.8,3.3-10.3,3.3h-18.9V481.8z M367.2,501.9c3.6,0,5.8-0.6,6.5-1.9
			c0.7-1.2,1.1-2.9,1.1-4.9v-1.3c0-0.8,0-1.6,0-2.4c0-0.8-0.1-1.6-0.2-2.3c-0.3-1.4-1-2.3-2.2-2.8c-1.2-0.4-2.8-0.6-4.7-0.6h-10.2
			v16.2H367.2z"/>
		<path class="st0" d="M369.5,506.3h-19.4v-25h18.2c4.7,0,8.2,0.7,10.5,2.1c2.4,1.5,3.6,3.9,3.6,7.2v1c0,0.3,0,0.7,0.1,1l0,2.1
			c0,3.1-0.7,5.8-2.2,8C378.7,505.2,375.2,506.3,369.5,506.3z M351.1,505.3h18.4c5.3,0,8.6-1,9.9-3.1c1.3-2.1,2-4.6,2-7.5v-2
			c0-0.3-0.1-0.7-0.1-1v-1c0-3-1-5.1-3.1-6.4c-2.1-1.3-5.5-2-10-2h-17.2V505.3z M367.2,502.4h-10.3v-17.2h10.7
			c1.9,0,3.5,0.2,4.8,0.7c1.4,0.5,2.3,1.6,2.6,3.2c0.1,0.8,0.2,1.6,0.3,2.4c0,0.8,0,1.6,0,2.4v1.3c0,2.1-0.4,3.8-1.2,5.1
			C373.3,501.7,371,502.4,367.2,502.4z M357.9,501.4h9.3c4.2,0,5.6-0.9,6.1-1.6c0.7-1.2,1-2.7,1-4.6v-1.3c0-0.8,0-1.6,0-2.4
			c0-0.8-0.1-1.5-0.2-2.3c-0.2-1.2-0.8-2-1.9-2.4c-1.2-0.4-2.7-0.6-4.5-0.6h-9.7V501.4z"/>
	</g>
	<g>
		<path class="st0" d="M434.9,505.8h-7v-19.9h-10.4v-4.1h28v4.1h-10.6V505.8z"/>
		<path class="st0" d="M435.4,506.3h-8v-19.9H417v-5.1h29v5.1h-10.6V506.3z M428.4,505.3h6v-19.9H445v-3.1h-27v3.1h10.4V505.3z"/>
	</g>
	<g>
		<path class="st0" d="M459.1,484.9c1.4-2.2,5.5-3.2,12.4-3.2c4.2,0,7.9,0.4,11.1,1.1c3.2,0.7,5,2.8,5.2,6.2
			c0.1,0.5,0.1,1.1,0.1,1.6c0,0.5,0,1.1,0,1.6v1.6c0,4.4-0.7,7.6-2.2,9.4c-1.5,1.9-6.1,2.8-13.8,2.8c-5.4,0-9.3-0.6-11.6-1.8
			c-2.3-1.2-3.4-3.8-3.4-7.6c0-0.2,0-0.4,0-0.6c0-0.2,0-0.4,0.1-0.6c0-0.2,0-0.4,0-0.6s0-0.4,0-0.6
			C457.1,490.1,457.7,487,459.1,484.9z M464.1,495.1c0,0.3,0,0.7,0,1.1c0,0.4,0,0.7,0,1.1c0,0.3,0,0.7,0.1,1.1
			c0.2,1.8,0.9,2.9,2.2,3.3c1.2,0.4,3.1,0.6,5.5,0.6c3.2,0,5.4-0.3,6.8-0.8c1.4-0.5,2.1-1.9,2.2-4.2c0.1-1,0.1-2,0.1-2.9
			c0-1,0-1.9,0-2.9c0-2.2-0.4-3.8-1.2-4.6c-0.8-0.8-2.9-1.2-6.3-1.2c-4.6,0-7.4,0.4-8.1,1.3c-0.8,0.9-1.2,2.6-1.2,5.1
			c0,0,0,0.1,0,0.2c0,0.1,0,0.1,0,0.2c0,0.3-0.1,0.5-0.1,0.8s0,0.6,0,1C464.1,494.4,464.1,494.7,464.1,495.1z"/>
		<path class="st0" d="M472,506.5c-5.6,0-9.4-0.6-11.8-1.9c-2.4-1.3-3.7-4-3.7-8v-0.6c0-0.2,0-0.5,0.1-0.7l0-1.1
			c0-4.1,0.7-7.3,2.1-9.5l0,0c1.5-2.3,5.7-3.5,12.8-3.5c4.2,0,8,0.4,11.2,1.1c3.4,0.8,5.3,3,5.6,6.7c0.1,0.5,0.1,1.1,0.1,1.6
			c0,0.5,0,1.1,0,1.6v1.6c0,4.6-0.8,7.8-2.3,9.8C484.6,505.5,479.9,506.5,472,506.5z M459.5,485.1L459.5,485.1
			c-1.3,2.1-1.9,5.1-1.9,9v1.2c0,0.3-0.1,0.5-0.1,0.6v0.6c0,3.6,1.1,6,3.1,7.2c2.2,1.2,6,1.8,11.3,1.8c9.4,0,12.5-1.4,13.4-2.6
			c1.4-1.8,2.1-4.8,2.1-9.1v-1.6c0-0.5,0-1.1,0-1.6c0-0.5-0.1-1-0.1-1.5c-0.2-3.2-1.8-5.1-4.8-5.8c-3.2-0.7-6.9-1.1-11-1.1
			C464.8,482.1,460.8,483.1,459.5,485.1z M471.9,502.6c-2.5,0-4.3-0.2-5.6-0.6c-1.4-0.4-2.3-1.7-2.5-3.7c0-0.4-0.1-0.7-0.1-1.1
			c0-0.4,0-0.7,0-1.1v-3.1c0-0.3,0-0.6,0.1-0.9l0-0.3c0-2.6,0.4-4.4,1.3-5.4c0.6-0.6,2.1-1.5,8.5-1.5c3.6,0,5.8,0.4,6.7,1.4
			c0.9,0.9,1.4,2.5,1.4,4.9v2.9c0,1,0,2-0.1,3c-0.1,2.4-1,4-2.5,4.6C477.4,502.3,475.1,502.6,471.9,502.6z M473.4,486
			c-5.9,0-7.4,0.7-7.8,1.1c-0.7,0.8-1,2.4-1,4.7v0.3c0,0.3-0.1,0.6-0.1,0.8v3.1c0,0.4,0,0.7,0,1c0,0.3,0,0.7,0.1,1
			c0.2,1.6,0.8,2.5,1.8,2.8c1.2,0.4,3,0.6,5.3,0.6c3.1,0,5.3-0.3,6.6-0.8c1.2-0.5,1.8-1.7,1.9-3.7c0.1-1,0.1-2,0.1-2.9v-2.9
			c0-2.1-0.4-3.5-1.1-4.2C478.9,486.6,477.5,486,473.4,486z"/>
	</g>
	<g>
		<path class="st0" d="M556.5,493.1v0.6l0.1,3.8c0,2.1-0.5,3.9-1.4,5.5c-0.9,1.5-3.2,2.5-7,2.8c-1.2,0-2.4,0.1-3.6,0.1
			c-1.2,0-2.4,0-3.6,0c-5.4,0-9.5-0.6-12.1-1.7c-2.6-1.1-3.9-3.7-3.9-7.7c0-0.3,0-0.6,0-0.8c0-0.3,0-0.5,0.1-0.8c0-0.3,0-0.5,0-0.8
			c0-0.3,0-0.6,0-0.8c0-0.2,0-0.4,0-0.6s0-0.4,0-0.6c0-0.3,0-0.7,0-1c0-0.3,0-0.7,0.1-1.1c0-1,0.2-2,0.5-2.9c0.3-1,0.9-1.9,1.8-2.7
			c1.1-1,2.5-1.7,4.1-2.1c1.7-0.4,3.4-0.6,5.2-0.7c0.5,0,1.1,0,1.6,0s1,0,1.5,0h3.2c4.5,0,7.9,0.4,10,1.2c2.1,0.8,3.2,2.9,3.3,6.1
			h-6.9c0-1.1-0.3-1.9-0.9-2.5s-1.8-0.9-3.5-1c-0.6,0-1.3,0-1.9-0.1c-0.6,0-1.3,0-1.9,0c-4.4,0-7,0.4-7.8,1.3
			c-0.8,0.9-1.2,2.7-1.3,5.6c0,0.2,0,0.4,0,0.6s0,0.4,0,0.6l0.1,3.1c0,2.5,0.6,4,1.8,4.6s3.5,0.9,7.1,0.9c3.3,0,5.6-0.3,6.8-0.8
			c1.2-0.5,1.8-1.9,1.8-4.2c0,0,0-0.1,0-0.2s0-0.1,0-0.2c0,0-0.1-0.1-0.1-0.2c0-0.1,0-0.1,0-0.2h-9.1v-3.4H556.5z"/>
		<path class="st0" d="M541.1,506.5c-5.5,0-9.6-0.6-12.3-1.8c-2.8-1.2-4.2-4-4.2-8.1v-0.8c0-0.3,0-0.6,0.1-0.9l0-3.7
			c0-0.4,0-0.7,0.1-1.1c0-1,0.2-2,0.5-3c0.3-1,1-2,1.9-2.9c1.1-1.1,2.6-1.8,4.4-2.2c1.7-0.4,3.5-0.6,5.3-0.7c0.5,0,1.1,0,1.6,0h4.7
			c4.6,0,8,0.4,10.2,1.3c2.3,0.9,3.6,3.1,3.6,6.6l0,0.5h-7.9V489c0-0.9-0.3-1.6-0.8-2.1c-0.5-0.5-1.6-0.8-3.2-0.8
			c-0.7,0-1.3,0-1.9-0.1c-0.6,0-1.3,0-1.9,0c-5.6,0-7.1,0.7-7.5,1.1c-0.5,0.5-1.1,1.8-1.2,5.2v1.2l0.1,3.1c0,2.3,0.5,3.7,1.5,4.2
			c1.1,0.5,3.4,0.8,6.9,0.8c3.2,0,5.5-0.2,6.6-0.7c1-0.4,1.5-1.7,1.5-3.7V497h-9.1v-4.4H557v1.1l0.1,3.8c0,2.2-0.5,4.1-1.4,5.8
			c-1,1.7-3.4,2.7-7.4,3c-1.2,0-2.4,0.1-3.6,0.1C543.5,506.5,542.3,506.5,541.1,506.5z M538.4,482.1c-0.5,0-1,0-1.6,0
			c-1.8,0.1-3.5,0.3-5.1,0.7c-1.6,0.4-2.9,1-3.9,2c-0.8,0.8-1.3,1.6-1.6,2.5c-0.3,0.9-0.5,1.9-0.5,2.8c0,0.4-0.1,0.7-0.1,1v3.8
			c0,0.3-0.1,0.6-0.1,0.8v0.8c0,3.8,1.2,6.2,3.6,7.2c2.5,1.1,6.5,1.7,11.9,1.7c1.2,0,2.4,0,3.6,0c1.2,0,2.4-0.1,3.6-0.1
			c3.5-0.3,5.8-1.2,6.6-2.5c0.9-1.5,1.3-3.2,1.3-5.2l-0.1-4h-14.9v2.4h9.1v0.6l0.1,0.1v0.5c0,2.5-0.7,4-2.1,4.6
			c-1.3,0.5-3.6,0.8-7,0.8c-3.7,0-6.1-0.3-7.3-0.9c-1.3-0.7-2-2.4-2.1-5l-0.1-4.3c0.1-3,0.5-5,1.4-5.9c0.6-0.6,2-1.4,8.2-1.4
			c0.7,0,1.3,0,2,0c0.7,0,1.3,0,2,0.1c1.8,0.1,3.1,0.4,3.8,1.1c0.6,0.6,1,1.4,1.1,2.4h5.9c-0.2-2.8-1.1-4.5-3-5.2
			c-2.1-0.8-5.4-1.2-9.8-1.2H538.4z"/>
	</g>
	<g>
		<path class="st0" d="M577.4,505.8h-6.9v-24h6.9V505.8z"/>
		<path class="st0" d="M577.9,506.3H570v-25h7.9V506.3z M571,505.3h5.9v-23H571V505.3z"/>
	</g>
	<g>
		<path class="st0" d="M623.1,481.8l-11.6,24H601l-11.5-24h7.1l9.7,20.2l9.7-20.2H623.1z"/>
		<path class="st0" d="M611.8,506.3h-11.1l-12-25h8.2l9.4,19.5l9.4-19.5h8.2L611.8,506.3z M601.3,505.3h9.8l11.1-23h-6l-10,20.8
			l-10-20.8h-6L601.3,505.3z"/>
	</g>
	<g>
		<path class="st0" d="M641,491.9h16.9v3.3H641v6.8H659v3.8h-24.6v-24h24.5v3.8H641V491.9z"/>
		<path class="st0" d="M659.5,506.3h-25.6v-25h25.5v4.8h-17.8v5.3h16.9v4.3h-16.9v5.8h17.9V506.3z M634.8,505.3h23.6v-2.8h-17.9
			v-7.8h16.9v-2.3h-16.9v-7.3h17.8v-2.8h-23.5V505.3z"/>
	</g>
</g>
</svg>
